; Engine configuration file.
; It's best edited using the editor UI and not directly,
; since the parameters that go here are not all obvious.
;
; Format:
;   [section] ; section goes between []
;   param=value ; assign values to parameters

config_version=4

[application]

config/name="Scrap Space Fighter"
run/main_scene="res://menus/MainMenu.tscn"
boot_splash/image="res://icon.png"
boot_splash/fullsize=false
boot_splash/bg_color=Color( 0, 0, 0, 1 )
config/icon="res://icon.png"

[autoload]

Overlay="*res://singletons/Overlay.tscn"
PartInfo="*res://singletons/PartInfo.gd"
ShipEditor="*res://singletons/ShipEditor.tscn"
GameInfo="*res://singletons/GameInfo.gd"
Stars="*res://singletons/Stars.tscn"
Serializer="*res://singletons/Serializer.gd"
MusicManager="*res://singletons/MusicManager.tscn"

[debug]

settings/fps/force_fps=60
gdscript/warnings/return_value_discarded=false
gdscript/warnings/integer_division=false

[display]

window/size/width=600
window/size/height=450
window/stretch/mode="2d"
window/stretch/aspect="keep"

[gui]

theme/custom="res://assets/asteroids_theme.tres"
theme/custom_font="res://assets/default_font.tres"

[input]

up={
"deadzone": 0.5,
"events": [ Object(InputEventKey,"resource_local_to_scene":false,"resource_name":"","device":0,"alt":false,"shift":false,"control":false,"meta":false,"command":false,"pressed":false,"scancode":87,"physical_scancode":0,"unicode":0,"echo":false,"script":null)
, Object(InputEventKey,"resource_local_to_scene":false,"resource_name":"","device":0,"alt":false,"shift":false,"control":false,"meta":false,"command":false,"pressed":false,"scancode":16777232,"physical_scancode":0,"unicode":0,"echo":false,"script":null)
 ]
}
down={
"deadzone": 0.5,
"events": [ Object(InputEventKey,"resource_local_to_scene":false,"resource_name":"","device":0,"alt":false,"shift":false,"control":false,"meta":false,"command":false,"pressed":false,"scancode":83,"physical_scancode":0,"unicode":0,"echo":false,"script":null)
, Object(InputEventKey,"resource_local_to_scene":false,"resource_name":"","device":0,"alt":false,"shift":false,"control":false,"meta":false,"command":false,"pressed":false,"scancode":16777234,"physical_scancode":0,"unicode":0,"echo":false,"script":null)
 ]
}
left={
"deadzone": 0.5,
"events": [ Object(InputEventKey,"resource_local_to_scene":false,"resource_name":"","device":0,"alt":false,"shift":false,"control":false,"meta":false,"command":false,"pressed":false,"scancode":65,"physical_scancode":0,"unicode":0,"echo":false,"script":null)
, Object(InputEventKey,"resource_local_to_scene":false,"resource_name":"","device":0,"alt":false,"shift":false,"control":false,"meta":false,"command":false,"pressed":false,"scancode":16777231,"physical_scancode":0,"unicode":0,"echo":false,"script":null)
 ]
}
right={
"deadzone": 0.5,
"events": [ Object(InputEventKey,"resource_local_to_scene":false,"resource_name":"","device":0,"alt":false,"shift":false,"control":false,"meta":false,"command":false,"pressed":false,"scancode":68,"physical_scancode":0,"unicode":0,"echo":false,"script":null)
, Object(InputEventKey,"resource_local_to_scene":false,"resource_name":"","device":0,"alt":false,"shift":false,"control":false,"meta":false,"command":false,"pressed":false,"scancode":16777233,"physical_scancode":0,"unicode":0,"echo":false,"script":null)
 ]
}
shoot1={
"deadzone": 0.5,
"events": [ Object(InputEventKey,"resource_local_to_scene":false,"resource_name":"","device":0,"alt":false,"shift":false,"control":false,"meta":false,"command":false,"pressed":false,"scancode":85,"physical_scancode":0,"unicode":0,"echo":false,"script":null)
 ]
}
shoot2={
"deadzone": 0.5,
"events": [ Object(InputEventKey,"resource_local_to_scene":false,"resource_name":"","device":0,"alt":false,"shift":false,"control":false,"meta":false,"command":false,"pressed":false,"scancode":73,"physical_scancode":0,"unicode":0,"echo":false,"script":null)
 ]
}
shoot3={
"deadzone": 0.5,
"events": [ Object(InputEventKey,"resource_local_to_scene":false,"resource_name":"","device":0,"alt":false,"shift":false,"control":false,"meta":false,"command":false,"pressed":false,"scancode":74,"physical_scancode":0,"unicode":0,"echo":false,"script":null)
 ]
}
shoot4={
"deadzone": 0.5,
"events": [ Object(InputEventKey,"resource_local_to_scene":false,"resource_name":"","device":0,"alt":false,"shift":false,"control":false,"meta":false,"command":false,"pressed":false,"scancode":75,"physical_scancode":0,"unicode":0,"echo":false,"script":null)
 ]
}
pause={
"deadzone": 0.5,
"events": [ Object(InputEventKey,"resource_local_to_scene":false,"resource_name":"","device":0,"alt":false,"shift":false,"control":false,"meta":false,"command":false,"pressed":false,"scancode":16777217,"physical_scancode":0,"unicode":0,"echo":false,"script":null)
, Object(InputEventKey,"resource_local_to_scene":false,"resource_name":"","device":0,"alt":false,"shift":false,"control":false,"meta":false,"command":false,"pressed":false,"scancode":16777221,"physical_scancode":0,"unicode":0,"echo":false,"script":null)
, Object(InputEventKey,"resource_local_to_scene":false,"resource_name":"","device":0,"alt":false,"shift":false,"control":false,"meta":false,"command":false,"pressed":false,"scancode":80,"physical_scancode":0,"unicode":0,"echo":false,"script":null)
 ]
}

[physics]

common/enable_pause_aware_picking=true

[rendering]

vram_compression/import_etc=true
vram_compression/import_etc2=false
environment/default_clear_color=Color( 0, 0, 0, 1 )
environment/default_environment="res://default_env.tres"
