[gd_scene load_steps=3 format=2]

[ext_resource path="res://game/parts/Part.tscn" type="PackedScene" id=1]
[ext_resource path="res://assets/textures/damage.png" type="Texture" id=2]

[node name="Damage" instance=ExtResource( 1 )]
fire_rate_mult = 1.25
damage_mult = 2.0

[node name="Sprite" parent="." index="0"]
position = Vector2( 0, -13 )
scale = Vector2( 0.5, 0.5 )
texture = ExtResource( 2 )
