[gd_scene load_steps=6 format=2]

[ext_resource path="res://game/parts/Part.tscn" type="PackedScene" id=1]
[ext_resource path="res://assets/textures/laser.png" type="Texture" id=2]
[ext_resource path="res://game/parts/Laser.gd" type="Script" id=3]
[ext_resource path="res://assets/sfx/Laser_Beam.wav" type="AudioStream" id=4]

[sub_resource type="RectangleShape2D" id=1]
extents = Vector2( 10, 400 )

[node name="Laser" instance=ExtResource( 1 )]
script = ExtResource( 3 )

[node name="Sprite" parent="." index="0"]
position = Vector2( 0, -44 )
scale = Vector2( 0.5, 0.5 )
texture = ExtResource( 2 )

[node name="LaserArea" type="Area2D" parent="." index="1"]
position = Vector2( 0, -80 )

[node name="CollisionShape2D" type="CollisionShape2D" parent="LaserArea" index="0"]
position = Vector2( 0, -400 )
shape = SubResource( 1 )

[node name="LaserTimer" type="Timer" parent="." index="2"]
one_shot = true

[node name="ShootCooldown" type="Timer" parent="." index="3"]
wait_time = 3.0
one_shot = true

[node name="LaserPlayer" type="AudioStreamPlayer2D" parent="." index="4"]
stream = ExtResource( 4 )

[connection signal="timeout" from="LaserTimer" to="." method="_on_LaserTimer_timeout"]
[connection signal="timeout" from="ShootCooldown" to="." method="_on_ShootCooldown_timeout"]
