[gd_scene load_steps=3 format=2]

[ext_resource path="res://game/parts/Part.gd" type="Script" id=1]
[ext_resource path="res://assets/outline.tres" type="Material" id=2]

[node name="Part" type="Node2D"]
script = ExtResource( 1 )

[node name="Sprite" type="Sprite" parent="."]
material = ExtResource( 2 )
