[gd_scene load_steps=4 format=2]

[ext_resource path="res://game/parts/Part.tscn" type="PackedScene" id=1]
[ext_resource path="res://game/parts/Shooter.gd" type="Script" id=2]
[ext_resource path="res://assets/textures/gun.png" type="Texture" id=3]

[node name="Shooter" instance=ExtResource( 1 )]
script = ExtResource( 2 )
fire_cooldown = 0.5

[node name="ShootCooldown" type="Timer" parent="." index="0"]
one_shot = true

[node name="Sprite" parent="." index="1"]
position = Vector2( 0, -36 )
scale = Vector2( 0.5, 0.5 )
texture = ExtResource( 3 )

[node name="ShootPos" type="Position2D" parent="." index="2"]
position = Vector2( 0, -64 )

[connection signal="timeout" from="ShootCooldown" to="." method="_on_ShootCooldown_timeout"]
