[gd_scene load_steps=6 format=2]

[ext_resource path="res://game/parts/Part.tscn" type="PackedScene" id=1]
[ext_resource path="res://assets/textures/sword.png" type="Texture" id=2]
[ext_resource path="res://game/parts/Sword.gd" type="Script" id=3]

[sub_resource type="RectangleShape2D" id=1]
extents = Vector2( 10, 40 )

[sub_resource type="ParticlesMaterial" id=2]
emission_shape = 2
emission_box_extents = Vector3( 10, 40, 1 )
flag_disable_z = true
gravity = Vector3( 0, 0, 0 )
orbit_velocity = 0.0
orbit_velocity_random = 0.0
angle = 720.0
angle_random = 1.0
scale = 4.0

[node name="Sword" instance=ExtResource( 1 )]
script = ExtResource( 3 )

[node name="SwordArea" type="Area2D" parent="." index="0"]

[node name="CollisionShape2D" type="CollisionShape2D" parent="SwordArea" index="0"]
position = Vector2( 0, -53 )
shape = SubResource( 1 )

[node name="Particles2D" type="Particles2D" parent="SwordArea/CollisionShape2D" index="0"]
local_coords = false
process_material = SubResource( 2 )

[node name="Sprite" parent="." index="1"]
position = Vector2( 0, -48 )
scale = Vector2( 0.5, 0.5 )
texture = ExtResource( 2 )

[connection signal="area_entered" from="SwordArea" to="." method="_on_SwordArea_area_entered"]
[connection signal="body_entered" from="SwordArea" to="." method="_on_SwordArea_body_entered"]
