[gd_scene load_steps=2 format=2]

[ext_resource path="res://menus/LetterButton.gd" type="Script" id=1]

[node name="LetterButton" type="Button"]
margin_right = 60.0
margin_bottom = 60.0
focus_neighbour_left = NodePath(".")
focus_neighbour_top = NodePath("Up")
focus_neighbour_right = NodePath(".")
focus_neighbour_bottom = NodePath("Down")
focus_next = NodePath(".")
focus_previous = NodePath(".")
mouse_filter = 2
text = "A"
script = ExtResource( 1 )
__meta__ = {
"_edit_use_anchors_": false
}

[node name="Up" type="Control" parent="."]
anchor_left = 0.5
anchor_right = 0.5
focus_mode = 2
size_flags_horizontal = 3
__meta__ = {
"_edit_use_anchors_": false,
"_editor_description_": ""
}

[node name="Down" type="Control" parent="."]
anchor_left = 0.5
anchor_top = 1.0
anchor_right = 0.5
anchor_bottom = 1.0
focus_mode = 2

[connection signal="focus_entered" from="Up" to="." method="_on_Up_focus_entered"]
[connection signal="focus_entered" from="Down" to="." method="_on_Down_focus_entered"]
