[gd_scene load_steps=3 format=2]

[ext_resource path="res://menus/RebindButton.tscn" type="PackedScene" id=1]
[ext_resource path="res://menus/RebindEntry.gd" type="Script" id=2]

[node name="RebindEntry" type="HBoxContainer"]
margin_right = 212.0
margin_bottom = 58.0
script = ExtResource( 2 )
__meta__ = {
"_edit_use_anchors_": false
}

[node name="Control" type="Control" parent="."]
margin_right = 6.0
margin_bottom = 58.0
size_flags_horizontal = 3
size_flags_stretch_ratio = 0.05

[node name="Label" type="Label" parent="."]
margin_left = 10.0
margin_top = 10.0
margin_right = 72.0
margin_bottom = 48.0
size_flags_horizontal = 3
size_flags_vertical = 6
size_flags_stretch_ratio = 0.5

[node name="RebindButton" parent="." instance=ExtResource( 1 )]
margin_left = 76.0
margin_right = 201.0
margin_bottom = 58.0
size_flags_horizontal = 3
size_flags_vertical = 3

[node name="Control2" type="Control" parent="."]
margin_left = 205.0
margin_right = 212.0
margin_bottom = 58.0
size_flags_horizontal = 3
size_flags_stretch_ratio = 0.05
