[gd_scene load_steps=3 format=2]

[ext_resource path="res://assets/sfx/Space_Atmosphere.wav" type="AudioStream" id=1]
[ext_resource path="res://singletons/MusicManager.gd" type="Script" id=2]

[node name="MusicManager" type="Node"]
pause_mode = 2
script = ExtResource( 2 )

[node name="MusicPlayer" type="AudioStreamPlayer" parent="."]

[node name="SpacePlayer" type="AudioStreamPlayer" parent="."]
stream = ExtResource( 1 )
volume_db = -8.0
autoplay = true
