[gd_scene load_steps=3 format=2]

[ext_resource path="res://game/enemies/EnemyBullet.gd" type="Script" id=1]

[sub_resource type="CircleShape2D" id=1]

[node name="EnemyBullet" type="Area2D"]
pause_mode = 1
monitorable = false
script = ExtResource( 1 )

[node name="CollisionShape2D" type="CollisionShape2D" parent="."]
shape = SubResource( 1 )

[node name="FreeTimer" type="Timer" parent="."]
wait_time = 10.0
one_shot = true
autostart = true

[connection signal="body_entered" from="." to="." method="_on_EnemyBullet_body_entered"]
[connection signal="timeout" from="FreeTimer" to="." method="_on_FreeTimer_timeout"]
